<!DOCTYPE svg PUBLIC "-//W3C//DTD SVG 20010904//EN" "http://www.w3.org/TR/2001/REC-SVG-20010904/DTD/svg10.dtd">
<svg version="1.0" xmlns="http://www.w3.org/2000/svg" width="512px" height="512px" viewBox="0 0 5120 5120" preserveAspectRatio="xMidYMid meet">
<g id="layer101" fill="#000000" stroke="none">
 <path d="M455 4461 c-22 -10 -54 -34 -72 -52 -68 -72 -63 73 -63 -1849 0 -1922 -5 -1777 63 -1849 18 -18 50 -42 72 -52 39 -18 114 -19 2105 -19 1991 0 2066 1 2105 19 22 10 54 34 72 52 68 72 63 -73 63 1851 0 1677 -1 1745 -19 1783 -10 22 -34 54 -52 72 -72 68 107 63 -2171 63 -1988 0 -2064 -1 -2103 -19z m4125 -152 c64 -23 60 88 60 -1749 0 -1837 4 -1726 -60 -1749 -47 -16 -3993 -16 -4040 0 -56 20 -60 44 -60 354 l0 275 1660 0 c1647 0 1660 0 1680 20 27 27 27 93 0 120 -20 20 -33 20 -1680 20 l-1660 0 0 1314 c0 953 3 1322 11 1346 23 63 -117 59 2065 60 1461 0 2000 -3 2024 -11z"/>
 <path d="M980 3820 c-13 -13 -20 -33 -20 -60 0 -27 7 -47 20 -60 19 -19 33 -20 300 -20 267 0 281 1 300 20 13 13 20 33 20 60 0 27 -7 47 -20 60 -19 19 -33 20 -300 20 -267 0 -281 -1 -300 -20z"/>
 <path d="M2740 3820 c-19 -19 -20 -33 -20 -540 0 -507 1 -521 20 -540 20 -20 33 -20 700 -20 667 0 680 0 700 20 19 19 20 33 20 540 0 507 -1 521 -20 540 -20 20 -33 20 -700 20 -667 0 -680 0 -700 -20z m1260 -540 l0 -400 -560 0 -560 0 0 400 0 400 560 0 560 0 0 -400z"/>
 <path d="M980 3500 c-13 -13 -20 -33 -20 -60 0 -27 7 -47 20 -60 20 -20 33 -20 700 -20 667 0 680 0 700 20 13 13 20 33 20 60 0 27 -7 47 -20 60 -20 20 -33 20 -700 20 -667 0 -680 0 -700 -20z"/>
 <path d="M980 3180 c-13 -13 -20 -33 -20 -60 0 -27 7 -47 20 -60 19 -19 33 -20 380 -20 347 0 361 1 380 20 13 13 20 33 20 60 0 27 -7 47 -20 60 -19 19 -33 20 -380 20 -347 0 -361 -1 -380 -20z"/>
 <path d="M1940 3180 c-13 -13 -20 -33 -20 -60 0 -70 20 -80 160 -80 140 0 160 10 160 80 0 70 -20 80 -160 80 -107 0 -122 -2 -140 -20z"/>
 <path d="M980 2860 c-13 -13 -20 -33 -20 -60 0 -27 7 -47 20 -60 20 -20 33 -20 700 -20 667 0 680 0 700 20 13 13 20 33 20 60 0 27 -7 47 -20 60 -20 20 -33 20 -700 20 -667 0 -680 0 -700 -20z"/>
 <path d="M980 2380 c-19 -19 -20 -33 -20 -220 0 -187 1 -201 20 -220 20 -20 33 -20 1580 -20 1547 0 1560 0 1580 20 19 19 20 33 20 220 0 187 -1 201 -20 220 -20 20 -33 20 -1580 20 -1547 0 -1560 0 -1580 -20z m3020 -220 l0 -80 -1440 0 -1440 0 0 80 0 80 1440 0 1440 0 0 -80z"/>
 <path d="M4020 1580 c-13 -13 -20 -33 -20 -60 0 -27 7 -47 20 -60 19 -19 33 -20 220 -20 187 0 201 1 220 20 13 13 20 33 20 60 0 27 -7 47 -20 60 -19 19 -33 20 -220 20 -187 0 -201 -1 -220 -20z"/>
 <path d="M740 1260 c-18 -18 -20 -33 -20 -140 0 -140 10 -160 80 -160 70 0 80 20 80 160 0 140 -10 160 -80 160 -27 0 -47 -7 -60 -20z"/>
 <path d="M1140 1260 c-18 -18 -20 -33 -20 -140 0 -140 10 -160 80 -160 70 0 80 20 80 160 0 140 -10 160 -80 160 -27 0 -47 -7 -60 -20z"/>
 <path d="M1540 1260 c-18 -18 -20 -33 -20 -140 0 -140 10 -160 80 -160 70 0 80 20 80 160 0 140 -10 160 -80 160 -27 0 -47 -7 -60 -20z"/>
 <path d="M1940 1260 c-18 -18 -20 -33 -20 -140 0 -140 10 -160 80 -160 70 0 80 20 80 160 0 140 -10 160 -80 160 -27 0 -47 -7 -60 -20z"/>
 <path d="M2340 1260 c-18 -18 -20 -33 -20 -140 0 -140 10 -160 80 -160 70 0 80 20 80 160 0 140 -10 160 -80 160 -27 0 -47 -7 -60 -20z"/>
 <path d="M2740 1260 c-18 -18 -20 -33 -20 -140 0 -140 10 -160 80 -160 70 0 80 20 80 160 0 140 -10 160 -80 160 -27 0 -47 -7 -60 -20z"/>
 <path d="M3140 1260 c-18 -18 -20 -33 -20 -140 0 -140 10 -160 80 -160 70 0 80 20 80 160 0 140 -10 160 -80 160 -27 0 -47 -7 -60 -20z"/>
 <path d="M3540 1260 c-18 -18 -20 -33 -20 -140 0 -140 10 -160 80 -160 70 0 80 20 80 160 0 140 -10 160 -80 160 -27 0 -47 -7 -60 -20z"/>
 <path d="M3940 1260 c-18 -18 -20 -33 -20 -140 0 -140 10 -160 80 -160 70 0 80 20 80 160 0 140 -10 160 -80 160 -27 0 -47 -7 -60 -20z"/>
 <path d="M4340 1260 c-18 -18 -20 -33 -20 -140 0 -140 10 -160 80 -160 70 0 80 20 80 160 0 140 -10 160 -80 160 -27 0 -47 -7 -60 -20z"/>
 </g>

</svg>